﻿///<'editor_f.pbo' properties via Mikero's dos tools, dll version 7.25>///
prefix=a3\editor_f
product=Arma 3
version=121103
//Pbo Type is: Arma Addon
//Sha: '4A094FF3E7625DDDCF92D1C1DE44CE02BB9D5149'
//////</properties>//////
